RANV release version: 22.02.03.00
cpu_core 44
cpu_core 45
cpu_core 46
cpu_core 47
All the fast log are going to the file: ./RANV.log
[vzwRanShmInit] : Initializing SHM Library Version : v2.1
[vzwRanShmInit] : Initializing SHM Library Version : v2.1
[vzwRanShmInit] : Initializing SHM Library Version : v2.1
[vzwRanShmInit] : Initializing SHM Library Version : v2.1
[vzwRanShmInit] : Initializing SHM Library Version : v2.1
[vzwRanShmInit] : Initializing SHM Library Version : v2.1
recvfrom pubsub cmd socket failed: Resource temporarily unavailable
