20220828 22:22:12.535 ERROR    uev- CNX broken with peer 0 38 12
20220828 22:22:12.535 ERROR    uev- Connection Error with UE (Header) = 0

20220828 22:22:12.535 ERROR    uev- closing the connection with peer

