20220829 20:47:03.155 ERROR    uev- CNX broken with peer 0 38 12
20220829 20:47:03.155 ERROR    uev- Connection Error with UE (Header) = 0

20220829 20:47:03.155 ERROR    uev- closing the connection with peer

